{"data":[{"id":17,"title":"Quia repellendus.","description":"Sunt totam nisi quo vel. Explicabo vitae id officiis dolor quia quia. Quo rerum laudantium illum totam rerum.","cover":"","published_at":"24\/01\/2020 20:16","author":{"id":41,"name":"Newton Bartoletti","email":"kareem14@example.org","is_author":1}},{"id":16,"title":"Est reiciendis doloremque.","description":"Voluptate veritatis ut doloremque rerum dolores accusantium. Sit dignissimos qui sapiente tempora rerum in. Eum impedit dolorem doloribus est.","cover":"","published_at":"24\/01\/2020 20:16","author":{"id":40,"name":"Dr. Enrico Bergnaum II","email":"thomas.turcotte@example.net","is_author":1}},{"id":15,"title":"Ullam quidem temporibus.","description":"Iste nobis fugit distinctio nostrum. Ipsum enim nobis ducimus quo quos. Quaerat quidem consequatur reprehenderit.","cover":"","published_at":"24\/01\/2020 20:16","author":{"id":37,"name":"Uriel Schmitt","email":"hilbert.west@example.net","is_author":1}},{"id":14,"title":"Ipsum quae sed.","description":"Suscipit facere eum maxime nihil delectus. Aliquid id inventore est et quia. Necessitatibus dolorem aut commodi est.","cover":"","published_at":"24\/01\/2020 20:16","author":{"id":35,"name":"Alexane Ruecker III","email":"reilly.alia@example.org","is_author":1}},{"id":13,"title":"Illo corrupti sint repellat.","description":"Ab harum vero quis aspernatur et. Sint quisquam esse est adipisci et nobis. Natus illo ut qui voluptas ut. Odit eaque aut debitis quis dolore id non qui.","cover":"","published_at":"24\/01\/2020 20:16","author":{"id":33,"name":"Josianne Hirthe","email":"lindgren.orland@example.net","is_author":1}},{"id":12,"title":"Molestiae qui.","description":"Vel aut porro corporis. Et et vitae debitis nulla. Qui assumenda culpa deleniti odit dolore est earum.","cover":"","published_at":"24\/01\/2020 20:16","author":{"id":31,"name":"Ms. Flossie McGlynn","email":"bergnaum.lewis@example.net","is_author":1}},{"id":11,"title":"Odit aut qui.","description":"Ex reiciendis qui ut. Nihil non ipsam quos neque fuga. Reiciendis accusantium nulla qui enim dolor voluptatibus.","cover":"","published_at":"24\/01\/2020 20:16","author":{"id":28,"name":"Dr. Benedict King MD","email":"rkemmer@example.com","is_author":1}},{"id":10,"title":"Qui consequatur ut.","description":"Asperiores cupiditate rem iure molestiae et. Aliquid dolorum est sed rerum aut optio. Sit enim maiores rerum facilis. Odit sed dolor porro quibusdam dolor quisquam.","cover":"","published_at":"24\/01\/2020 20:16","author":{"id":26,"name":"Kayli Leannon","email":"bayer.rupert@example.net","is_author":1}},{"id":9,"title":"Aut at quisquam.","description":"Et aut vitae sequi. Et aut optio aliquam consequuntur doloremque perferendis. Accusantium enim voluptas at aut corrupti.","cover":"","published_at":"24\/01\/2020 20:16","author":{"id":25,"name":"Dr. Bettye Adams","email":"bartell.bud@example.com","is_author":1}},{"id":8,"title":"Neque qui.","description":"Ut nulla occaecati nulla autem dolores qui facilis. Voluptatem est aut velit sed est voluptatem maxime.","cover":"","published_at":"24\/01\/2020 20:16","author":{"id":18,"name":"Bridget Schimmel","email":"judy05@example.net","is_author":1}},{"id":7,"title":"Aperiam magni laboriosam.","description":"Aliquam et veniam quis autem placeat. Sunt aperiam assumenda doloribus at tenetur non vitae. Est et omnis ducimus suscipit consequatur fugit excepturi minima.","cover":"","published_at":"24\/01\/2020 20:16","author":{"id":16,"name":"Molly Powlowski","email":"isac78@example.org","is_author":1}},{"id":6,"title":"Aliquid voluptatem totam et.","description":"At deleniti maiores laboriosam. Quia non laboriosam fuga velit quibusdam error. Officia excepturi aut voluptatum temporibus neque.","cover":"","published_at":"24\/01\/2020 20:16","author":{"id":13,"name":"Prof. Immanuel Gottlieb","email":"adele43@example.net","is_author":1}},{"id":5,"title":"Alias inventore voluptatibus.","description":"Similique distinctio quasi a reiciendis facere beatae officia. Consequatur magnam sequi et explicabo quidem. Sit nobis a nihil earum fuga. Animi doloribus dignissimos impedit atque.","cover":"","published_at":"24\/01\/2020 20:16","author":{"id":11,"name":"Omer Reinger","email":"ohermann@example.net","is_author":1}},{"id":4,"title":"Tempore necessitatibus illo aut.","description":"Aliquid consequatur architecto fugit dolorem modi id eius. Consequatur voluptatem ut hic totam. Ipsa officia occaecati quod aut sint sunt.","cover":"","published_at":"24\/01\/2020 20:16","author":{"id":9,"name":"Dr. Darian Rath","email":"gulgowski.domingo@example.org","is_author":1}},{"id":3,"title":"Aliquid aliquid nesciunt sed.","description":"Beatae qui laboriosam id consequatur autem qui porro. Harum illum corrupti qui autem. Inventore ut itaque officiis officiis excepturi quidem non.","cover":"","published_at":"24\/01\/2020 20:16","author":{"id":6,"name":"Jackie McKenzie PhD","email":"amy83@example.net","is_author":1}}],"links":{"first":"http:\/\/books.loc\/api\/books?page=1","last":"http:\/\/books.loc\/api\/books?page=3","prev":"http:\/\/books.loc\/api\/books?page=1","next":"http:\/\/books.loc\/api\/books?page=3"},"meta":{"current_page":2,"from":16,"last_page":3,"path":"http:\/\/books.loc\/api\/books","per_page":15,"to":30,"total":31}}